{
    "status" : true,
    "message" : { 
          "code" : "{{#? message.code}}",
          "text" : "{{#? message.text}}"
      },  "data" : {
      "id" : "{{#? descargaApp.id}}",
      "titulo" : "{{#? descargaApp.titulo}}",
      "descripcion" : "{{#? descargaApp.descripcion}}",
      "urlImagen" :"{{#? descargaApp.urlImagen}}"
    }
  }