{
  "status" : true,
  "message" : { 
  "code" : "{{#? message.code}}",
  "text" : "{{#? message.text}}"
},  "data" : {
  "id" : "{{#? condicion.id}}",
  "descripcion" : "{{#? condicion.descripcion}}"
  }
}