{
  "status" : true,
  "message" : { 
  "code" : "{{#? message.code}}",
  "text" : "{{#? message.text}}"
},  "data" : {
  "id" : "{{#? garantia.id}}",
  "fechaCreacion" : "{{#? garantia.createdAt}}",
  "fechaExpiracion" :"{{#? garantia.fechaExpiracion}}",
  "duracionGarantia":{
    "id" : "{{#? garantia.duracionGarantia.id}}",
    "dia" : "{{#? garantia.duracionGarantia.dia}}"
   },
  "OrdenServicio" : { 
        "id" : "{{#? garantia.ordenServicio.id}}"    
    },
  "condiciones": {
    "{{#each garantia.condiciones}}" : {
      "id":"{{#? this.id}}",
      "descripcion":"{{#? this.descripcion}}"
    }
  }
  }
}