{
  "status" : true,
  "message" : { 
		"code" : "{{#? message.code}}",
		"text" : "{{#? message.text}}"
	},  "data" : {
    "{{#each carrusel }}" : {
    "id" : "{{#? this.id}}",
    "url_imagen" :"{{#? this.urlImagen}}"
    }
  }
}