{
  "status" : true,
  "message" : { 
		"code" : "{{#? message.code}}",
		"text" : "{{#? message.text}}"
	},  "data" : {
    "id" : "{{#? carrusel.id}}",
    "url_imagen" :"{{#? carrusel.urlImagen}}"
  }
}