{
  "status" : true,
  "message" : { 
		"code" : "{{#? message.code}}",
		"text" : "{{#? message.text}}"
	},  "data" :{
    "{{#each agenda}}": {
      "id": "{{#? this.id}}",
      "fechaActividad": "{{#? this.fechaActividad}}",
      "descripcion": "{{#? this.descripcion}}",
      "estatus": "{{#? this.estatus}}",
      "bloqueHorario": {
        "id" : "{{#? this.bloqueHorario.id}}",
        "descripcion" : "{{#? this.bloqueHorario.descripcion}}",
        "horaInicio" : "{{#? this.bloqueHorario.horaInicio}}",
        "horaFinal" : "{{#? this.bloqueHorario.horaFinal}}"
      },
      "usuario" : {
        "id" : "{{#? this.usuario.id}}",
        "nombre" : "{{#? this.usuario.nombre}}",
        "apellido" : "{{#? this.usuario.apellido}}",
        "correo" : "{{#? this.usuario.correo}}"
      },
      "actividad": {
        "id" : "{{#? this.actividad.id}}",
        "nombre" : "{{#? this.actvidad.nombre}}",
        "descripcion" : "{{#? this.actividad.descripcion}}",
        "costo" : "{{#? this.actividad.costo}}",
        "catalogoServicio" : {
          "id" : "{{#? this.actividad.catalogoServicio.id}}",
          "descripcion" : "{{#? this.actividad.catalogoServicio.descripcion}}"
        }
      },
      "ordenServicio": {
        "id" : "{{#? this.ordenServicio.id}}",
        "estatus" : "{{#? this.ordenServicio.estatus}}",
        "usuario" : {
          "id" : "{{#? this.ordenServicio.usuario.id}}",
          "nombre" : "{{#? this.ordenServicio.usuario.nombre}}",
          "apellido" : "{{#? this.ordenServicio.usuario.apellido}}",
          "correo" : "{{#? this.ordenServicio.usuario.correo}}"
        }
      },
      "incidencia": {
          "id": "{{#? this.incidencia.id}}"        
      }
    }
  }
}