{
    "status" : true,
  "message" : { 
  "code" : "{{#? message.code}}",
  "text" : "{{#? message.text}}"
  },    "data" : {
    "{{#each solicitudServicio}}": {
      "id" : "{{#? this.id}}",
      "fechaRevisado": "{{#? this.fechaRevisado2}}",
      "usuario": {
          "id": "{{#? this.usuario.id}}",
          "nombre": "{{#? this.usuario.nombre}}",
          "apellido": "{{#? this.usuario.apellido}}"
        },
        "revision":{
          "id": "{{#? this.revision.id}}",
          "estatusEquipo": "{{#? this.revision.estatusEquipo}}"
        },
      "catalogoServicio": {
        "id": "{{#? this.catalogoServicio.id}}",
        "descripcion": "{{#? this.catalogoServicio.descripcion}}",
        "tipoEquipo": {
          "id": "{{#? this.catalogoServicio.tipoEquipo.id}}",
          "nombre": "{{#? this.catalogoServicio.tipoEquipo.nombre}}",
          "categoriaTipoEquipo": {
            "id": "{{#? this.catalogoServicio.tipoEquipo.categoriaTipoEquipo.id}}",
            "nombre": "{{#? this.catalogoServicio.tipoEquipo.categoriaTipoEquipo.nombre}}"
          }          
        }
      },
      "modeloEquipo": {
        "id": "{{#? this.modeloEquipo.id}}",
        "nombre": "{{#? this.modeloEquipo.nombre}}",
        "marca": {
            "id": "{{#? this.modeloEquipo.marca.id}}",
            "nombre": "{{#? this.modeloEquipo.marca.nombre}}"
        }
      }
    }
  }
}