{
      "status" : true,
    "message" : { 
		"code" : "{{#? message.code}}",
		"text" : "{{#? message.text}}"
	},    "data" : {
      "id" : "{{#? tipoServicio.id}}",
      "nombre" : "{{#? tipoServicio.nombre}}"
    }
  }