{
    "status" : true,
    "message" : { 
		"code" : "{{#? message.code}}",
		"text" : "{{#? message.text}}"
	},  "data" : {
    "id" : "{{#? marca.id}}",
    "nombre" : "{{#? marca.nombre}}",
    "urlImagen" :"{{#? marca.urlImagen}}",
    "modelosEquipo" : {
      "{{#each marca.modelosEquipo}}" : {
          "id" : "{{#? this.id}}",
          "nombre" : "{{#? this.nombre}}"
      }
    }
  }
}