{
    "status" : true,
    "message" : { 
		"code" : "{{#? message.code}}",
		"text" : "{{#? message.text}}"
	},  "data" : {
    "precioMinimoRevision" : "{{precio.precioMinimoRevision}}",
    "precioMaximoRevision" : "{{precio.precioMaximoRevision}}"
    }
  }