{
  "status" : true,
  "message" : { 
  "code" : "{{#? message.code}}",
  "text" : "{{#? message.text}}"
},  "data" : {
  "{{#each solicitudServicio}}": {
    "id" : "{{#? this.id}}",
    "descripcion" : "{{#? this.descripcion}}",
    "fechaCreacion" : "{{#? this.fechaCreacion}}",
    "fechaRespuesta" : "{{#? this.fechaRespuesta}}",
    "fechaRevisado" : "{{#? this.fechaRevisado}}",
    "fechaGeneracionPresupuesto" : "{{#? this.fechaGeneracionPresupuesto}}",
    "presupuesto" : "{{#? this.presupuesto}}",
    "estatusPresupuesto" : "{{#? this.estatusPresupuesto}}",
    "estatus" : "{{#? this.estatus}}",
    "promocion": {
      "id" : "{{#? this.promocion.id}}",
      "nombre" : "{{#? this.promocion.nombre}}",
      "descripcion" : "{{#? this.promocion.descripcion}}",
      "fechaInicio" : "{{#? this.promocion.fechaInicio}}",
      "fechaExpiracion" : "{{#? this.promocion.fechaExpiracion}}",
      "urlImagen": "{{#? this.promocion.urlImagen}}",
      "descuento" : {
        "id" : "{{#? this.promocion.descuento.id}}",
        "nombre" : "{{#? this.promocion.descuento.nombre}}",
        "porcentaje": "{{#? this.promocion.descuento.porcentaje}}"
      }
    },
      "catalogoServicio": {
        "id" : "{{#? this.catalogoServicio.id}}",
        "descripcion":"{{#? this.catalogoServicio.descripcion}}"

      },
      "modeloEquipo": {
        "nombre" :"{{#? this.modeloEquipo.nombre}}",
        "marca": {
          "id" : "{{#? this.modeloEquipo.marca.id}}",
          "nombre" : "{{#? this.modeloEquipo.marca.nombre}}" 
        } 
      },
    "ordenServicio": {
        "id" : "{{#? this.ordenServicio.id}}",
        "estatus" : "{{#? this.ordenServicio.estatus}}",
        "fechaRespuestaCliente" : "{{#? this.ordenServicio.fechaRespuestaCliente}}",
        "fechaFinalizacion" : "{{#? this.ordenServicio.fechaFinalizacion}}",
        "fechaEntrega" : "{{#? this.ordenServicio.fechaEntrega}}",
        "fechaRespuestaReclamo" : "{{#? this.ordenServicio.fechaRespuestaReclamo}}",
        "fechaFinalizacionReclamo" : "{{#? this.ordenServicio.fechaFinalizacionReclamo}}",
        "fechaEntregaReclamo" : "{{#? this.ordenServicio.fechaEntregaReclamo}}",
        "usuario" : {
          "id" : "{{#? this.ordenServicio.usuario.id}}",
          "nombre" : "{{#? this.ordenServicio.usuario.nombre}}",
          "apellido" : "{{#? this.ordenServicio.usuario.apellido}}",
          "correo" : "{{#? this.ordenServicio.usuario.correo}}"
        },
        "garantia" : {
          "id" : "{{#? this.ordenServicio.garantia.id}}",
          "fechaCreacion" : "{{#? this.ordenServicio.garantia.createdAt}}",
          "fechaExpiracion": "{{#? this.ordenServicio.garantia.fechaExpiracion}}",
          "condiciones" : {
            "{{#each ordenServicio.garantia.condiciones}}": {
              "id" : "{{#? this.id}}",
              "descripcion" : "{{#? this.descripcion}}"            
            }              
          }          
        }
      }
    }  
  }
}