{
  "status" : true,
  "message" : { 
  "code" : "{{#? message.code}}",
  "text" : "{{#? message.text}}"
  },
  "data": {
    "id": "{{#? reclamoServicio.id}}",
    "descripcion": "{{#? reclamoServicio.descripcion}}",
    "fechaRespuesta": "{{#? reclamoServicio.fechaRespuesta}}",
    "diagnostico": "{{#? reclamoServicio.diagnostico}}",
    "estatus": "{{#? reclamoServicio.estatus}}",
    "estatusRevision": "{{#? reclamoServicio.estatusRevision}}",
    "tipoReclamo": {
      "id" : "{{#? reclamoServicio.tipoReclamo.id}}",
      "nombre" : "{{#? reclamoServicio.tipoReclamo.nombre}}"
    },
    "motivoRechazo": {
      "id" : "{{#? reclamoServicio.motivoRechazo.id}}",
      "tipoRechazo" : "{{#? reclamoServicio.motivoRechazo.tipoRechazo}}",
      "descripcion" :"{{#? reclamoServicio.motivoRechazo.descripcion}}"
    },
    "ordenServicio": {
      "id" : "{{#? reclamoServicio.ordenServicio.id}}",
      "estatus" : "{{#? reclamoServicio.ordenServicio.estatus}}",
      "estatusReclamo" : "{{#? reclamoServicio.ordenServicio.estatusReclamo}}",
      "fechaRespuestaCliente" : "{{#? reclamoServicio.ordenServicio.fechaRespuestaCliente}}",
      "fechaFinalizacion" : "{{#? reclamoServicio.ordenServicio.fechaFinalizacion}}",
      "fechaEntrega" : "{{#? reclamoServicio.ordenServicio.fechaEntrega}}",
      "fechaRespuestaReclamo" : "{{#? reclamoServicio.ordenServicio.fechaRespuestaReclamo}}",
      "fechaFinalizacionReclamo" : "{{#? ordenServicio.fechaFinalizacionReclamo}}",
      "fechaEntregaReclamo" : "{{#? reclamoServicio.ordenServicio.fechaEntregaReclamo}}",
      "puntaje" : "{{#? reclamoServicio.ordenServicio.puntaje}}",
      "comentario" :"{{#? reclamoServicio.ordenServicio.comentario}}",
      "usuario" : {
        "id" : "{{#? reclamoServicio.ordenServicio.usuario.id}}",
        "nombre" : "{{#? reclamoServicio.ordenServicio.usuario.nombre}}",
        "apellido" : "{{#? reclamoServicio.ordenServicio.usuario.apellido}}",
        "correo" : "{{#? reclamoServicio.ordenServicio.usuario.correo}}"
      },
      "solicitudServicio": {
        "id" : "{{#? reclamoServicio.ordenServicio.solicitudServicio.id}}",
        "descripcion" : "{{#? reclamoServicio.ordenServicio.solicitudServicio.descripcion}}",
        "motivoRechazo" : "{{#? reclamoServicio.ordenServicio.solicitudServicio.motivoRechazo}}",
        "fechaCreacion" : "{{reclamoServicio.ordenServicio.solicitudServicio.fechaCreacion}}",
        "fechaRespuesta" : "{{#? reclamoServicio.ordenServicio.solicitudServicio.fechaRespuesta}}",
        "fechaRevisado" : "{{#? reclamoServicio.ordenServicio.solicitudServicio.fechaRevisado}}",
        "fechaGeneracionPresupuesto" : "{{#? reclamoServicio.ordenServicio.solicitudServicio.fechaGeneracionPresupuesto}}",
        "presupuesto" : "{{#? reclamoServicio.ordenServicio.solicitudServicio.presupuesto}}",
        "estatusPresupuesto" : "{{#? reclamoServicio.ordenServicio.solicitudServicio.estatusPresupuesto}}",
        "estatus" : "{{#? reclamoServicio.ordenServicio.solicitudServicio.estatus}}",
        "revision":{
          "id" : "{{#? reclamoServicio.ordenServicio.solicitudServicio.revision.id}}",
          "costo" : "{{#? reclamoServicio.ordenServicio.solicitudServicio.revision.costo}}",
          "diagnostico" : "{{#? reclamoServicio.ordenServicio.solicitudServicio.revision.diagnostico}}",
          "estatusEquipo" : "{{#? reclamoServicio.ordenServicio.solicitudServicio.revision.estatusEquipo}}",
          "horaRevision" : "{{#? reclamoServicio.ordenServicio.solicitudServicio.agenda.bloqueHorario.horaInicio}}",
          "fechaRevision" : "{{#? reclamoServicio.ordenServicio.solicitudServicio.agenda.fechaActividad}}"
          },
        "usuario" : {
          "id" : "{{#? reclamoServicio.ordenServicio.solicitudServicio.usuario.id}}",
          "nombre" : "{{#? reclamoServicio.ordenServicio.solicitudServicio.usuario.nombre}}",
          "apellido" : "{{#? reclamoServicio.ordenServicio.solicitudServicio.usuario.apellido}}",
          "correo" : "{{#? reclamoServicio.ordenServicio.solicitudServicio.usuario.correo}}"
        },
        "modeloEquipo": {
          "id" : "{{#? reclamoServicio.ordenServicio.solicitudServicio.modeloEquipo.id}}",
          "nombre" : "{{#? reclamoServicio.ordenServicio.solicitudServicio.modeloEquipo.nombre}}",
          "marca" : {
            "id" : "{{#? reclamoServicio.ordenServicio.solicitudServicio.modeloEquipo.marca.id}}",
            "nombre" : "{{#? reclamoServicio.ordenServicio.solicitudServicio.modeloEquipo.marca.nombre}}"
          }
        },
        "catalogoServicio": {
          "id" : "{{#? reclamoServicio.ordenServicio.solicitudServicio.catalogoServicio.id}}",
          "descripcion" : "{{#? reclamoServicio.ordenServicio.solicitudServicio.catalogoServicio.descripcion}}"
        }
      }
    }
  }
}