{
  "status" : true,
  "message" : { 
    "code" : "{{#? message.code}}",
    "text" : "{{#? message.text}}"
  },
  "data" : {
    "id" : "{{#? catalogoServicio.id}}",
    "descripcion" : "{{#? catalogoServicio.descripcion}}",
    "urlImagen" : "{{#? catalogoServicio.urlImagen}}",
    "tipoEquipo" : {
      "id" : "{{#? catalogoServicio.tipoEquipo.id}}",
      "nombre" : "{{#? catalogoServicio.tipoEquipo.nombre}}"
    },
    "tipoServicio" :  {
      "id" : "{{#? catalogoServicio.tipoServicio.id}}",
      "nombre" : "{{#? catalogoServicio.tipoServicio.nombre}}"
    },
    "actividades" : {
      "{{#each catalogoServicio.actividades}}" : {
        "id" : "{{#? this.id}}",
        "nombre" : "{{#? this.nombre}}",
        "descripcion" : "{{#? this.descripcion}}",
        "costo" : "{{#? this.costo}}"
      }
    },
    "promociones" : {
      "{{#each catalogoServicio.promociones}}" : {
        "id" : "{{#? this.id}}",
        "nombre" : "{{#? this.nombre}}",
        "descripcion" : "{{#? this.descripcion}}",
        "fechaInicio" : "{{#? this.fechaInicio}}",
        "fechaExpiracion" : "{{#? this.fechaExpiracion}}",
        "urlImagen": "{{#? this.urlImagen}}",
        "descuento" : {
          "id" : "{{#? this.descuento.id}}",
          "nombre" : "{{#? this.descuento.nombre}}",
          "porcentaje" : "{{#? this.descuento.porcentaje}}"
        }
      }
    }
  }
}