{
    "status" : true,
    "message" : { 
		"code" : "{{#? message.code}}",
		"text" : "{{#? message.text}}"
	},  "data" : {
    "id" : "{{#? tipoCaracteristicaCliente.id}}",
    "nombre" : "{{#? tipoCaracteristicaCliente.nombre}}",
    "caracteristicasCliente" : {
      "{{#each tipoCaracteristicaCliente.caracteristicasCliente}}" : {
        "id" : "{{#? this.id}}",
        "nombre" : "{{#? this.nombre}}"
      }
    }
  }
}