{
    "status" : true,
    "message" : { 
		"code" : "{{#? message.code}}",
		"text" : "{{#? message.text}}"
	},  "data" : {
    "{{#each sliderMovil}}": {
      "id" : "{{#? this.id}}",
      "titulo" : "{{#? this.titulo}}",
      "descripcion" : "{{#? this.descripcion}}",
        "icono" : "{{#? this.icono}}"
    }
  }
}