{
  "status" : true,
  "message" : { 
  "code" : "{{#? message.code}}",
  "text" : "{{#? message.text}}"
},  "data" : {
    "id" : "{{#? notificacion.id}}",
    "nombre" : "{{#? notificacion.nombre}}",
    "entidad" : "{{#? notificacion.entidad}}",
    "descripcion" : "{{#? notificacion.descripcion}}",
    "titulo" : "{{#? notificacion.titulo}}",
    "idEntidad" : "{{#? notificacion.idEntidad}}",
    "leida" : "{{notificacion.leida}}",
    "urlImagen" :"{{#? notificacion.urlImagen}}"
  }
}